Lab 1: Census Data Quality for Policy Decisions – Johnny Chen - MUSA 5080 Portfolio
…
Hint: Remember to give your variables descriptive names using the variables = c(name = "code") syntax.

# Write your get_acs() code here
ca_data <- get_acs(
  geography = "county",
  state = my_state,
  variables = c(median_hh_income = "B19013_001", total_pop = "B01003_001"),
  year = 2022,
  survey = "acs5",
  output = "wide"
)
# Clean the county names to remove state name and "County" 
ca_data

# A tibble: 58 × 6
   GEOID NAME          median_hh_incomeE median_hh_incomeM total_popE total_popM
   <chr> <chr>                     <dbl>             <dbl>      <dbl>      <dbl>
 1 06001 Alameda Coun…            122488              1231    1663823         NA
 2 06003 Alpine Count…            101125             17442       1515        206
 3 06005 Amador Count…             74853              6048      40577         NA
 4 06007 Butte County…             66085              2261     213605         NA
 5 06009 Calaveras Co…             77526              3875      45674         NA
 6 06011 Colusa Count…             69619              5745      21811         NA
 7 06013 Contra Costa…            120020              1496    1162648         NA
 8 06015 Del Norte Co…             61149              4376      27462         NA
 9 06017 El Dorado Co…             99246              3330     191713         NA
10 06019 Fresno Count…             67756               967    1008280         NA
# ℹ 48 more rows
…
tract_091 <- get_acs(
  geography = "tract",
  variables = race_variables,
  state = my_state,
  county = "063",
  year = 2022,
  survey = "acs5",
  output = "wide"
)

tract_data <- bind_rows(tract_053, tract_109, tract_091)
tract_data

# A tibble: 2,519 × 10
   GEOID       NAME  total_popE total_popM whiteE whiteM blackE blackM hispanicE
   <chr>       <chr>      <dbl>      <dbl>  <dbl>  <dbl>  <dbl>  <dbl>     <dbl>
 1 06037101110 Cens…       4014        473   2236    312    121    149      1082
 2 06037101122 Cens…       4164        822   2882    790     76     86       362
 3 06037101220 Cens…       3481        467   1485    269      0     13      1463
 4 06037101221 Cens…       3756        687   1970    658    101     82      1204
 5 06037101222 Cens…       2808        424   1277    440     15     26      1295
 6 06037101300 Cens…       4071        445   2998    448     66     71       608
 7 06037101400 Cens…       3490        506   2021    386     59     75       881
 8 06037102103 Cens…       1834        502   1459    499     23     42        88
 9 06037102104 Cens…       4033        497   2729    546     82     64       461
10 06037102105 Cens…       1610        310    324    107      9     18      1087
# ℹ 2,509 more rows
# ℹ 1 more variable: hispanicM <dbl>
…
# Add readable tract and county name columns using str_extract() or similar
tract_data_pct_readable <- tract_data_pct %>%
  mutate(
    tract_name = str_extract(NAME, "Census Tract[^;]+") %>%
      str_trim(),
    county_name = str_extract(NAME, "[^;]+ County") %>%
      str_remove(" County") %>%
      str_trim()
  )
tract_data_pct_readable

# A tibble: 2,519 × 15
   GEOID       NAME  total_popE total_popM whiteE whiteM blackE blackM hispanicE
   <chr>       <chr>      <dbl>      <dbl>  <dbl>  <dbl>  <dbl>  <dbl>     <dbl>
 1 06037101110 Cens…       4014        473   2236    312    121    149      1082
 2 06037101122 Cens…       4164        822   2882    790     76     86       362
 3 06037101220 Cens…       3481        467   1485    269      0     13      1463
 4 06037101221 Cens…       3756        687   1970    658    101     82      1204
 5 06037101222 Cens…       2808        424   1277    440     15     26      1295
 6 06037101300 Cens…       4071        445   2998    448     66     71       608
 7 06037101400 Cens…       3490        506   2021    386     59     75       881
 8 06037102103 Cens…       1834        502   1459    499     23     42        88
 9 06037102104 Cens…       4033        497   2729    546     82     64       461
10 06037102105 Cens…       1610        310    324    107      9     18      1087
# ℹ 2,509 more rows
# ℹ 6 more variables: hispanicM <dbl>, pct_white <dbl>, pct_black <dbl>,
#   pct_hispanic <dbl>, tract_name <chr>, county_name <chr>
…
  mutate(
    white_moe_pct = round((whiteM / whiteE) * 100, 2),
    black_moe_pct = round((blackM / blackE) * 100, 2),
    hispanic_moe_pct = round((hispanicM / hispanicE) * 100, 2),
# Create a flag for tracts with high MOE on any demographic variable
# Use logical operators (| for OR) in an ifelse() statement
high_moe_flag = ifelse(
      (white_moe_pct > 15) & (black_moe_pct > 15) & (hispanic_moe_pct > 15),
      "High MOE",
      "GOOD"
    )
)
tract_data_moe

# A tibble: 2,519 × 19
   GEOID       NAME  total_popE total_popM whiteE whiteM blackE blackM hispanicE
   <chr>       <chr>      <dbl>      <dbl>  <dbl>  <dbl>  <dbl>  <dbl>     <dbl>
 1 06037101110 Cens…       4014        473   2236    312    121    149      1082
 2 06037101122 Cens…       4164        822   2882    790     76     86       362
 3 06037101220 Cens…       3481        467   1485    269      0     13      1463
 4 06037101221 Cens…       3756        687   1970    658    101     82      1204
 5 06037101222 Cens…       2808        424   1277    440     15     26      1295
 6 06037101300 Cens…       4071        445   2998    448     66     71       608
 7 06037101400 Cens…       3490        506   2021    386     59     75       881
 8 06037102103 Cens…       1834        502   1459    499     23     42        88
 9 06037102104 Cens…       4033        497   2729    546     82     64       461
10 06037102105 Cens…       1610        310    324    107      9     18      1087
# ℹ 2,509 more rows
# ℹ 10 more variables: hispanicM <dbl>, pct_white <dbl>, pct_black <dbl>,
#   pct_hispanic <dbl>, tract_name <chr>, county_name <chr>,
#   white_moe_pct <dbl>, black_moe_pct <dbl>, hispanic_moe_pct <dbl>,
#   high_moe_flag <chr>
…
